HT_all-jet_pt[0]-jet_pt[1];nJets;jet_pt[0];jet_pt[1];Alt$(jet_pcb_MV2c10_btag_ordered[2],0);Alt$(jet_pcb_MV2c10_btag_ordered[3],0)
462418.494347152;7.694098731901631;254244.43377313626;159923.89205968374;2.020167146647057;1.2689694329344816
1917524.689544476;7.76909235673439;302838.0543776408;185034.19704064511;2.3610953121162828;1.450172899744935
