HT_all;nJets;nRCJetsM100;10*Alt$(jet_pcb_MV2c10_btag_ordered[2],0)+Alt$(jet_pcb_MV2c10_btag_ordered[3],0);dRjj_Avg
876586.8201637698;7.694098731901631;0.5230524298830292;21.47064089940505;2.2663702823076473
2084681.8158401237;7.76909235673439;0.8692284338114966;24.9065665665137;2.281405931523787
