nRCJetsM100;nJets;jet_pt[0];jet_pt[1];jet_pt[2];jet_pt[3];jet_pt[4];jet_pt[5];jet_pt[6];Alt$(jet_pt[7],0);Alt$(jet_pt[8],0);Sum$(jet_pt*(Iteration$>=9));Alt$(el_pt[0],0)+Alt$(mu_pt[0],0);met_met
0.5966248385090196;7.791730465572515;266215.0557827421;166747.41444813777;115889.48345770147;86166.3055668897;65733.90594926075;50689.02024104214;39257.916773437275;16921.654890054644;7017.102393703296;4371.421323604138;93204.37603060584;97789.88097963121
0.9283505033987054;7.871246478507245;315209.83016484836;192260.63110508092;129407.37734873638;94826.42146718611;71685.68319389832;54818.60021469024;42016.31058482768;26354.283300381452;16355.23723112706;18589.801049000027;1981342.0242940604;1981658.3308621943
